\relax 
\providecommand\hyper@newdestlabel[2]{}
\providecommand\HyperFirstAtBeginDocument{\AtBeginDocument}
\HyperFirstAtBeginDocument{\ifx\hyper@anchor\@undefined
\global\let\oldcontentsline\contentsline
\gdef\contentsline#1#2#3#4{\oldcontentsline{#1}{#2}{#3}}
\global\let\oldnewlabel\newlabel
\gdef\newlabel#1#2{\newlabelxx{#1}#2}
\gdef\newlabelxx#1#2#3#4#5#6{\oldnewlabel{#1}{{#2}{#3}}}
\AtEndDocument{\ifx\hyper@anchor\@undefined
\let\contentsline\oldcontentsline
\let\newlabel\oldnewlabel
\fi}
\fi}
\global\let\hyper@last\relax 
\gdef\HyperFirstAtBeginDocument#1{#1}
\providecommand\HyField@AuxAddToFields[1]{}
\providecommand\HyField@AuxAddToCoFields[2]{}
\providecommand\babel@aux[2]{}
\@nameuse{bbl@beforestart}
\catcode `"\active 
\catcode `-\active 
\@writefile{toc}{\boolfalse {citerequest}\boolfalse {citetracker}\boolfalse {pagetracker}\boolfalse {backtracker}\relax }
\@writefile{lof}{\boolfalse {citerequest}\boolfalse {citetracker}\boolfalse {pagetracker}\boolfalse {backtracker}\relax }
\@writefile{lot}{\boolfalse {citerequest}\boolfalse {citetracker}\boolfalse {pagetracker}\boolfalse {backtracker}\relax }
\abx@aux@refcontext{none/global//global/global}
\babel@aux{czech}{}
\babel@aux{czech}{}
\babel@aux{czech}{}
\babel@aux{czech}{}
\babel@aux{english}{}
\babel@aux{czech}{}
\@writefile{toc}{\defcounter {refsection}{0}\relax }\@writefile{toc}{\contentsline {chapter}{Seznam obr\'azk\r {u}}{3}{chapter*.2}\protected@file@percent }
\@writefile{toc}{\defcounter {refsection}{0}\relax }\@writefile{toc}{\contentsline {chapter}{Seznam tabulek}{4}{chapter*.3}\protected@file@percent }
\@writefile{toc}{\defcounter {refsection}{0}\relax }\@writefile{toc}{\contentsline {chapter}{\numberline {1}Úvod}{5}{chapter.1}\protected@file@percent }
\@writefile{lof}{\defcounter {refsection}{0}\relax }\@writefile{lof}{\addvspace {10\p@ }}
\@writefile{lot}{\defcounter {refsection}{0}\relax }\@writefile{lot}{\addvspace {10\p@ }}
\newlabel{sec:Introduction}{{1}{5}{Úvod}{chapter.1}{}}
\@writefile{toc}{\defcounter {refsection}{0}\relax }\@writefile{toc}{\contentsline {section}{\numberline {1.1}Popis problému}{5}{section.1.1}\protected@file@percent }
\@writefile{toc}{\defcounter {refsection}{0}\relax }\@writefile{toc}{\contentsline {section}{\numberline {1.2}Dosavadní způsoby klasifikace}{5}{section.1.2}\protected@file@percent }
\@writefile{toc}{\defcounter {refsection}{0}\relax }\@writefile{toc}{\contentsline {chapter}{\numberline {2}Klasifikace dokumentů}{6}{chapter.2}\protected@file@percent }
\@writefile{lof}{\defcounter {refsection}{0}\relax }\@writefile{lof}{\addvspace {10\p@ }}
\@writefile{lot}{\defcounter {refsection}{0}\relax }\@writefile{lot}{\addvspace {10\p@ }}
\newlabel{sec:KlasifikaceDokumentu}{{2}{6}{Klasifikace dokumentů}{chapter.2}{}}
\@writefile{toc}{\defcounter {refsection}{0}\relax }\@writefile{toc}{\contentsline {section}{\numberline {2.1}Návrh klasifikátoru}{6}{section.2.1}\protected@file@percent }
\@writefile{toc}{\defcounter {refsection}{0}\relax }\@writefile{toc}{\contentsline {section}{\numberline {2.2}Metoda přenosu učení}{6}{section.2.2}\protected@file@percent }
\@writefile{toc}{\defcounter {refsection}{0}\relax }\@writefile{toc}{\contentsline {subsection}{\numberline {2.2.1}Výběr konvoluční báze}{6}{subsection.2.2.1}\protected@file@percent }
\@writefile{lof}{\defcounter {refsection}{0}\relax }\@writefile{lof}{\contentsline {figure}{\numberline {2.1}{\ignorespaces Hrubý pohled na architekturu sítě\relax }}{7}{figure.caption.4}\protected@file@percent }
\providecommand*\caption@xref[2]{\@setref\relax\@undefined{#1}}
\newlabel{fig:Hruby}{{2.1}{7}{Hrubý pohled na architekturu sítě\relax }{figure.caption.4}{}}
\newlabel{Dipl@TotalFigures::fig:Hruby}{{2.1}{7}{Hrubý pohled na architekturu sítě\relax }{figure.caption.4}{}}
\@writefile{toc}{\defcounter {refsection}{0}\relax }\@writefile{toc}{\contentsline {subsection}{\numberline {2.2.2}Extraktor rysů a klasifikátor}{7}{subsection.2.2.2}\protected@file@percent }
\@writefile{lof}{\defcounter {refsection}{0}\relax }\@writefile{lof}{\contentsline {figure}{\numberline {2.2}{\ignorespaces Různé míry přenosu učení a trénování\relax }}{8}{figure.caption.5}\protected@file@percent }
\newlabel{fig:Strategie}{{2.2}{8}{Různé míry přenosu učení a trénování\relax }{figure.caption.5}{}}
\newlabel{Dipl@TotalFigures::fig:Strategie}{{2.2}{8}{Různé míry přenosu učení a trénování\relax }{figure.caption.5}{}}
\@writefile{toc}{\defcounter {refsection}{0}\relax }\@writefile{toc}{\contentsline {subsection}{\numberline {2.2.3}Doladění před-trénovaného modelu}{8}{subsection.2.2.3}\protected@file@percent }
\@writefile{toc}{\defcounter {refsection}{0}\relax }\@writefile{toc}{\contentsline {subsubsection}{\numberline {2.2.3.1}Strategie 1 - Trénování celé sítě}{8}{subsubsection.2.2.3.1}\protected@file@percent }
\@writefile{toc}{\defcounter {refsection}{0}\relax }\@writefile{toc}{\contentsline {subsubsection}{\numberline {2.2.3.2}Strategie 2 - Jemné ladění parametrů sítě}{8}{subsubsection.2.2.3.2}\protected@file@percent }
\@writefile{toc}{\defcounter {refsection}{0}\relax }\@writefile{toc}{\contentsline {subsubsection}{\numberline {2.2.3.3}Strategie 3 - Zamražení konvoluční báze}{9}{subsubsection.2.2.3.3}\protected@file@percent }
\abx@aux@cite{ialni}
\abx@aux@segm{0}{0}{ialni}
\abx@aux@cite{tobacco3482}
\abx@aux@segm{0}{0}{tobacco3482}
\@writefile{toc}{\defcounter {refsection}{0}\relax }\@writefile{toc}{\contentsline {chapter}{\numberline {3}Implementace}{10}{chapter.3}\protected@file@percent }
\@writefile{lof}{\defcounter {refsection}{0}\relax }\@writefile{lof}{\addvspace {10\p@ }}
\@writefile{lot}{\defcounter {refsection}{0}\relax }\@writefile{lot}{\addvspace {10\p@ }}
\newlabel{sec:Implementace}{{3}{10}{Implementace}{chapter.3}{}}
\@writefile{toc}{\defcounter {refsection}{0}\relax }\@writefile{toc}{\contentsline {section}{\numberline {3.1}Zdroj dat}{10}{section.3.1}\protected@file@percent }
\@writefile{toc}{\defcounter {refsection}{0}\relax }\@writefile{toc}{\contentsline {subsection}{\numberline {3.1.1}The RVL-CDIP Dataset}{10}{subsection.3.1.1}\protected@file@percent }
\@writefile{lof}{\defcounter {refsection}{0}\relax }\@writefile{lof}{\contentsline {figure}{\numberline {3.1}{\ignorespaces Ukázka oskenovaných dokumentů z datasetu The RVL-CDIP Dataset\relax }}{10}{figure.caption.6}\protected@file@percent }
\newlabel{fig:UkazkaRLDIP}{{3.1}{10}{Ukázka oskenovaných dokumentů z datasetu The RVL-CDIP Dataset\relax }{figure.caption.6}{}}
\newlabel{Dipl@TotalFigures::fig:UkazkaRLDIP}{{3.1}{10}{Ukázka oskenovaných dokumentů z datasetu The RVL-CDIP Dataset\relax }{figure.caption.6}{}}
\@writefile{toc}{\defcounter {refsection}{0}\relax }\@writefile{toc}{\contentsline {subsection}{\numberline {3.1.2}Tobacco-3482}{11}{subsection.3.1.2}\protected@file@percent }
\newlabel{fig:T1}{{3.2a}{11}{Subfigure 3 3.2a}{subfigure.3.2.1}{}}
\newlabel{sub@fig:T1}{{(a)}{a}{Subfigure 3 3.2a\relax }{subfigure.3.2.1}{}}
\newlabel{fig:T2}{{3.2b}{11}{Subfigure 3 3.2b}{subfigure.3.2.2}{}}
\newlabel{sub@fig:T2}{{(b)}{b}{Subfigure 3 3.2b\relax }{subfigure.3.2.2}{}}
\newlabel{fig:T3}{{3.2c}{11}{Subfigure 3 3.2c}{subfigure.3.2.3}{}}
\newlabel{sub@fig:T3}{{(c)}{c}{Subfigure 3 3.2c\relax }{subfigure.3.2.3}{}}
\newlabel{fig:T4}{{3.2d}{11}{Subfigure 3 3.2d}{subfigure.3.2.4}{}}
\newlabel{sub@fig:T4}{{(d)}{d}{Subfigure 3 3.2d\relax }{subfigure.3.2.4}{}}
\@writefile{lof}{\defcounter {refsection}{0}\relax }\@writefile{lof}{\contentsline {figure}{\numberline {3.2}{\ignorespaces Ukázka oskenovaných dokumentů z datasetu Tobacco-3482\relax }}{11}{figure.caption.7}\protected@file@percent }
\newlabel{fig:UkazkaTobacco}{{3.2}{11}{Ukázka oskenovaných dokumentů z datasetu Tobacco-3482\relax }{figure.caption.7}{}}
\newlabel{Dipl@TotalFigures::fig:UkazkaTobacco}{{3.2}{11}{Ukázka oskenovaných dokumentů z datasetu Tobacco-3482\relax }{figure.caption.7}{}}
\@writefile{lof}{\defcounter {refsection}{0}\relax }\@writefile{lof}{\contentsline {subfigure}{\numberline{(a)}{\ignorespaces {Memo}}}{11}{subfigure.2.1}\protected@file@percent }
\@writefile{lof}{\defcounter {refsection}{0}\relax }\@writefile{lof}{\contentsline {subfigure}{\numberline{(b)}{\ignorespaces {Report}}}{11}{subfigure.2.2}\protected@file@percent }
\@writefile{lof}{\defcounter {refsection}{0}\relax }\@writefile{lof}{\contentsline {subfigure}{\numberline{(c)}{\ignorespaces {Leták}}}{11}{subfigure.2.3}\protected@file@percent }
\@writefile{lof}{\defcounter {refsection}{0}\relax }\@writefile{lof}{\contentsline {subfigure}{\numberline{(d)}{\ignorespaces {Email}}}{11}{subfigure.2.4}\protected@file@percent }
\@writefile{toc}{\defcounter {refsection}{0}\relax }\@writefile{toc}{\contentsline {section}{\numberline {3.2}Pracovní prostředí}{11}{section.3.2}\protected@file@percent }
\@writefile{toc}{\defcounter {refsection}{0}\relax }\@writefile{toc}{\contentsline {chapter}{\numberline {4}Experimenty}{12}{chapter.4}\protected@file@percent }
\@writefile{lof}{\defcounter {refsection}{0}\relax }\@writefile{lof}{\addvspace {10\p@ }}
\@writefile{lot}{\defcounter {refsection}{0}\relax }\@writefile{lot}{\addvspace {10\p@ }}
\newlabel{sec:Experimenty}{{4}{12}{Experimenty}{chapter.4}{}}
\@writefile{toc}{\defcounter {refsection}{0}\relax }\@writefile{toc}{\contentsline {section}{\numberline {4.1}Síť A}{12}{section.4.1}\protected@file@percent }
\@writefile{toc}{\defcounter {refsection}{0}\relax }\@writefile{toc}{\contentsline {section}{\numberline {4.2}Síť B}{12}{section.4.2}\protected@file@percent }
\newlabel{fig:ArchA}{{4.1a}{13}{Subfigure 4 4.1a}{subfigure.4.1.1}{}}
\newlabel{sub@fig:ArchA}{{(a)}{a}{Subfigure 4 4.1a\relax }{subfigure.4.1.1}{}}
\newlabel{fig:ArchB}{{4.1b}{13}{Subfigure 4 4.1b}{subfigure.4.1.2}{}}
\newlabel{sub@fig:ArchB}{{(b)}{b}{Subfigure 4 4.1b\relax }{subfigure.4.1.2}{}}
\@writefile{lof}{\defcounter {refsection}{0}\relax }\@writefile{lof}{\contentsline {figure}{\numberline {4.1}{\ignorespaces Srovnání architektur sítí A a B\relax }}{13}{figure.caption.8}\protected@file@percent }
\newlabel{fig:ArchVerzeAB}{{4.1}{13}{Srovnání architektur sítí A a B\relax }{figure.caption.8}{}}
\newlabel{Dipl@TotalFigures::fig:ArchVerzeAB}{{4.1}{13}{Srovnání architektur sítí A a B\relax }{figure.caption.8}{}}
\@writefile{lof}{\defcounter {refsection}{0}\relax }\@writefile{lof}{\contentsline {subfigure}{\numberline{(a)}{\ignorespaces {Síť A}}}{13}{subfigure.1.1}\protected@file@percent }
\@writefile{lof}{\defcounter {refsection}{0}\relax }\@writefile{lof}{\contentsline {subfigure}{\numberline{(b)}{\ignorespaces {Síť B}}}{13}{subfigure.1.2}\protected@file@percent }
\@writefile{toc}{\defcounter {refsection}{0}\relax }\@writefile{toc}{\contentsline {section}{\numberline {4.3}Výsledky testování}{14}{section.4.3}\protected@file@percent }
\@writefile{lot}{\defcounter {refsection}{0}\relax }\@writefile{lot}{\contentsline {table}{\numberline {4.1}{\ignorespaces Výsledky přesnosti klasifikace dokumentů sítí A a B nad trénovacími daty\relax }}{14}{table.caption.9}\protected@file@percent }
\newlabel{tab:Vysledky}{{4.1}{14}{Výsledky přesnosti klasifikace dokumentů sítí A a B nad trénovacími daty\relax }{table.caption.9}{}}
\newlabel{Dipl@TotalTables::tab:Vysledky}{{4.1}{14}{Výsledky přesnosti klasifikace dokumentů sítí A a B nad trénovacími daty\relax }{table.caption.9}{}}
\@writefile{toc}{\defcounter {refsection}{0}\relax }\@writefile{toc}{\contentsline {subsection}{\numberline {4.3.1}Grafy průběhu trénování}{14}{subsection.4.3.1}\protected@file@percent }
\newlabel{fig:PresnostA}{{4.2a}{14}{Subfigure 4 4.2a}{subfigure.4.2.1}{}}
\newlabel{sub@fig:PresnostA}{{(a)}{a}{Subfigure 4 4.2a\relax }{subfigure.4.2.1}{}}
\newlabel{fig:PresnostB}{{4.2b}{14}{Subfigure 4 4.2b}{subfigure.4.2.2}{}}
\newlabel{sub@fig:PresnostB}{{(b)}{b}{Subfigure 4 4.2b\relax }{subfigure.4.2.2}{}}
\@writefile{lof}{\defcounter {refsection}{0}\relax }\@writefile{lof}{\contentsline {figure}{\numberline {4.2}{\ignorespaces Srovnání přesností klasifikace dokumentů sítí A a B\relax }}{14}{figure.caption.10}\protected@file@percent }
\newlabel{fig:Grafy}{{4.2}{14}{Srovnání přesností klasifikace dokumentů sítí A a B\relax }{figure.caption.10}{}}
\newlabel{Dipl@TotalFigures::fig:Grafy}{{4.2}{14}{Srovnání přesností klasifikace dokumentů sítí A a B\relax }{figure.caption.10}{}}
\@writefile{lof}{\defcounter {refsection}{0}\relax }\@writefile{lof}{\contentsline {subfigure}{\numberline{(a)}{\ignorespaces {Síť A}}}{14}{subfigure.2.1}\protected@file@percent }
\@writefile{lof}{\defcounter {refsection}{0}\relax }\@writefile{lof}{\contentsline {subfigure}{\numberline{(b)}{\ignorespaces {Síť B}}}{14}{subfigure.2.2}\protected@file@percent }
\abx@aux@cite{lmv2}
\abx@aux@segm{0}{0}{lmv2}
\abx@aux@cite{efficnet}
\abx@aux@segm{0}{0}{efficnet}
\abx@aux@cite{efficnet}
\abx@aux@segm{0}{0}{efficnet}
\abx@aux@cite{lightcnn}
\abx@aux@segm{0}{0}{lightcnn}
\abx@aux@cite{lmv2}
\abx@aux@segm{0}{0}{lmv2}
\abx@aux@cite{efficnet}
\abx@aux@segm{0}{0}{efficnet}
\abx@aux@cite{efficnet}
\abx@aux@segm{0}{0}{efficnet}
\abx@aux@cite{lightcnn}
\abx@aux@segm{0}{0}{lightcnn}
\newlabel{fig:ChybovostA}{{4.3a}{15}{Subfigure 4 4.3a}{subfigure.4.3.1}{}}
\newlabel{sub@fig:ChybovostA}{{(a)}{a}{Subfigure 4 4.3a\relax }{subfigure.4.3.1}{}}
\newlabel{fig:ChybovostB}{{4.3b}{15}{Subfigure 4 4.3b}{subfigure.4.3.2}{}}
\newlabel{sub@fig:ChybovostB}{{(b)}{b}{Subfigure 4 4.3b\relax }{subfigure.4.3.2}{}}
\@writefile{lof}{\defcounter {refsection}{0}\relax }\@writefile{lof}{\contentsline {figure}{\numberline {4.3}{\ignorespaces Srovnání chybovosti klasifikace dokumentů sítí A a B\relax }}{15}{figure.caption.11}\protected@file@percent }
\newlabel{fig:GrafyChyb}{{4.3}{15}{Srovnání chybovosti klasifikace dokumentů sítí A a B\relax }{figure.caption.11}{}}
\newlabel{Dipl@TotalFigures::fig:GrafyChyb}{{4.3}{15}{Srovnání chybovosti klasifikace dokumentů sítí A a B\relax }{figure.caption.11}{}}
\@writefile{lof}{\defcounter {refsection}{0}\relax }\@writefile{lof}{\contentsline {subfigure}{\numberline{(a)}{\ignorespaces {Síť A}}}{15}{subfigure.3.1}\protected@file@percent }
\@writefile{lof}{\defcounter {refsection}{0}\relax }\@writefile{lof}{\contentsline {subfigure}{\numberline{(b)}{\ignorespaces {Síť B}}}{15}{subfigure.3.2}\protected@file@percent }
\@writefile{toc}{\defcounter {refsection}{0}\relax }\@writefile{toc}{\contentsline {subsection}{\numberline {4.3.2}Srovnání s ostatními sítěmi}{15}{subsection.4.3.2}\protected@file@percent }
\@writefile{lot}{\defcounter {refsection}{0}\relax }\@writefile{lot}{\contentsline {table}{\numberline {4.2}{\ignorespaces Srovnání přesnosti klasifikace dokumentů napříč sítěmi\relax }}{15}{table.caption.12}\protected@file@percent }
\newlabel{tab:SrovnaniInternet}{{4.2}{15}{Srovnání přesnosti klasifikace dokumentů napříč sítěmi\relax }{table.caption.12}{}}
\newlabel{Dipl@TotalTables::tab:SrovnaniInternet}{{4.2}{15}{Srovnání přesnosti klasifikace dokumentů napříč sítěmi\relax }{table.caption.12}{}}
\abx@aux@cite{lmv2}
\abx@aux@segm{0}{0}{lmv2}
\@writefile{toc}{\defcounter {refsection}{0}\relax }\@writefile{toc}{\contentsline {chapter}{\numberline {5}Vylepšení}{16}{chapter.5}\protected@file@percent }
\@writefile{lof}{\defcounter {refsection}{0}\relax }\@writefile{lof}{\addvspace {10\p@ }}
\@writefile{lot}{\defcounter {refsection}{0}\relax }\@writefile{lot}{\addvspace {10\p@ }}
\newlabel{sec:Vylepseni}{{5}{16}{Vylepšení}{chapter.5}{}}
\@writefile{toc}{\defcounter {refsection}{0}\relax }\@writefile{toc}{\contentsline {section}{\numberline {5.1}Augmentace dat}{16}{section.5.1}\protected@file@percent }
\@writefile{toc}{\defcounter {refsection}{0}\relax }\@writefile{toc}{\contentsline {section}{\numberline {5.2}Zmenšit rozash jasů}{16}{section.5.2}\protected@file@percent }
\@writefile{toc}{\defcounter {refsection}{0}\relax }\@writefile{toc}{\contentsline {section}{\numberline {5.3}Zájmové body}{16}{section.5.3}\protected@file@percent }
\abx@aux@cite{ialni}
\abx@aux@segm{0}{0}{ialni}
\abx@aux@cite{efficnet}
\abx@aux@segm{0}{0}{efficnet}
\@writefile{toc}{\defcounter {refsection}{0}\relax }\@writefile{toc}{\contentsline {section}{\numberline {5.4}Velký malý dataset}{17}{section.5.4}\protected@file@percent }
\@writefile{toc}{\defcounter {refsection}{0}\relax }\@writefile{toc}{\contentsline {chapter}{\numberline {6}Závěr}{18}{chapter.6}\protected@file@percent }
\@writefile{lof}{\defcounter {refsection}{0}\relax }\@writefile{lof}{\addvspace {10\p@ }}
\@writefile{lot}{\defcounter {refsection}{0}\relax }\@writefile{lot}{\addvspace {10\p@ }}
\IfIsDocumentCounterF{xassoccnt@total@Dipl@TotalFigures}{\DeclareDocumentCounter{xassoccnt@total@Dipl@TotalFigures}}

\setcounter{xassoccnt@total@Dipl@TotalFigures}{7}
\IfIsDocumentCounterF{xassoccnt@total@Dipl@TotalTables}{\DeclareDocumentCounter{xassoccnt@total@Dipl@TotalTables}}

\setcounter{xassoccnt@total@Dipl@TotalTables}{2}
\abx@aux@read@bbl@mdfivesum{82C7179AA9102A916BE6853FF503CB10}
\abx@aux@refcontextdefaultsdone
\abx@aux@defaultrefcontext{0}{ialni}{none/global//global/global}
\abx@aux@defaultrefcontext{0}{tobacco3482}{none/global//global/global}
\abx@aux@defaultrefcontext{0}{lmv2}{none/global//global/global}
\abx@aux@defaultrefcontext{0}{efficnet}{none/global//global/global}
\abx@aux@defaultrefcontext{0}{lightcnn}{none/global//global/global}
\@writefile{toc}{\defcounter {refsection}{0}\relax }\@writefile{toc}{\contentsline {chapter}{Literatura}{19}{chapter*.13}\protected@file@percent }
\babel@aux{czech}{}
\babel@aux{czech}{}
\babel@aux{czech}{}
\babel@aux{czech}{}
\babel@aux{czech}{}
\babel@aux{czech}{}
\babel@aux{czech}{}
\babel@aux{czech}{}
\babel@aux{czech}{}
\babel@aux{czech}{}
\babel@aux{czech}{}
\babel@aux{czech}{}
\babel@aux{czech}{}
\babel@aux{czech}{}
\gdef \@abspage@last{19}
