% $ biblatex auxiliary file $
% $ biblatex bbl format version 3.1 $
% Do not modify the above lines!
%
% This is an auxiliary file used by the 'biblatex' package.
% This file may safely be deleted. It will be recreated by
% biber as required.
%
\begingroup
\makeatletter
\@ifundefined{ver@biblatex.sty}
  {\@latex@error
     {Missing 'biblatex' package}
     {The bibliography requires the 'biblatex' package.}
      \aftergroup\endinput}
  {}
\endgroup


\refsection{0}
  \datalist[entry]{none/global//global/global}
    \entry{ialni}{inproceedings}{}
      \name{author}{3}{}{%
        {{hash=fedd6353d07bf95c885451782830b304}{%
           family={Harley},
           familyi={H\bibinitperiod},
           given={Adam\bibnamedelima W},
           giveni={A\bibinitperiod\bibinitdelim W\bibinitperiod}}}%
        {{hash=01ac79ddaae878a281ee60ab89987b21}{%
           family={Ufkes},
           familyi={U\bibinitperiod},
           given={Alex},
           giveni={A\bibinitperiod}}}%
        {{hash=f4d17913611d82f564f18b35a7665fb6}{%
           family={Derpanis},
           familyi={D\bibinitperiod},
           given={Konstantinos\bibnamedelima G},
           giveni={K\bibinitperiod\bibinitdelim G\bibinitperiod}}}%
      }
      \strng{namehash}{3ea2ce3c19d6d826347a6f3d1c1aa164}
      \strng{fullhash}{3ea2ce3c19d6d826347a6f3d1c1aa164}
      \strng{bibnamehash}{3ea2ce3c19d6d826347a6f3d1c1aa164}
      \strng{authorbibnamehash}{3ea2ce3c19d6d826347a6f3d1c1aa164}
      \strng{authornamehash}{3ea2ce3c19d6d826347a6f3d1c1aa164}
      \strng{authorfullhash}{3ea2ce3c19d6d826347a6f3d1c1aa164}
      \field{sortinit}{1}
      \field{sortinithash}{4f6aaa89bab872aa0999fec09ff8e98a}
      \field{labelnamesource}{author}
      \field{labeltitlesource}{title}
      \field{booktitle}{International Conference on Document Analysis and Recognition ({ICDAR})}
      \field{title}{Evaluation of Deep Convolutional Nets for Document Image Classification and Retrieval}
    \endentry
    \entry{tobacco3482}{article}{}
      \name{author}{3}{}{%
        {{hash=161799b822f3469fa18f3fff08e65157}{%
           family={Kumar},
           familyi={K\bibinitperiod},
           given={Jayant},
           giveni={J\bibinitperiod}}}%
        {{hash=ce3f19a723bcd0054884382d658f4001}{%
           family={Ye},
           familyi={Y\bibinitperiod},
           given={Peng},
           giveni={P\bibinitperiod}}}%
        {{hash=78c543b8be493883e86da5ebdcd862c4}{%
           family={Doermann},
           familyi={D\bibinitperiod},
           given={David},
           giveni={D\bibinitperiod}}}%
      }
      \strng{namehash}{043bd5dbaccc83de2db09b9f319f722b}
      \strng{fullhash}{043bd5dbaccc83de2db09b9f319f722b}
      \strng{bibnamehash}{043bd5dbaccc83de2db09b9f319f722b}
      \strng{authorbibnamehash}{043bd5dbaccc83de2db09b9f319f722b}
      \strng{authornamehash}{043bd5dbaccc83de2db09b9f319f722b}
      \strng{authorfullhash}{043bd5dbaccc83de2db09b9f319f722b}
      \field{sortinit}{2}
      \field{sortinithash}{8b555b3791beccb63322c22f3320aa9a}
      \field{labelnamesource}{author}
      \field{labeltitlesource}{title}
      \field{journaltitle}{Pattern Recognition Letters}
      \field{month}{07}
      \field{title}{Structural similarity for document image classification and retrieval}
      \field{volume}{43}
      \field{year}{2014}
      \field{pages}{119\bibrangedash 126}
      \range{pages}{8}
      \verb{doi}
      \verb 10.1016/j.patrec.2013.10.030
      \endverb
    \endentry
    \entry{lmv2}{misc}{}
      \name{author}{12}{}{%
        {{hash=9eda43a644030ac3eceaf837cb2489ac}{%
           family={Xu},
           familyi={X\bibinitperiod},
           given={Yang},
           giveni={Y\bibinitperiod}}}%
        {{hash=37ab3773594025d7f25c839aac01952d}{%
           family={Xu},
           familyi={X\bibinitperiod},
           given={Yiheng},
           giveni={Y\bibinitperiod}}}%
        {{hash=16c15c1e2b6e3b196fd18ea0415143d4}{%
           family={Lv},
           familyi={L\bibinitperiod},
           given={Tengchao},
           giveni={T\bibinitperiod}}}%
        {{hash=d22cf63412f5bb89dcde7965f3514581}{%
           family={Cui},
           familyi={C\bibinitperiod},
           given={Lei},
           giveni={L\bibinitperiod}}}%
        {{hash=e5bfd490d91c5d1b935092ce3132a083}{%
           family={Wei},
           familyi={W\bibinitperiod},
           given={Furu},
           giveni={F\bibinitperiod}}}%
        {{hash=e614d1177b4e766695f7585009f350ae}{%
           family={Wang},
           familyi={W\bibinitperiod},
           given={Guoxin},
           giveni={G\bibinitperiod}}}%
        {{hash=251643e5328edc453395a4babee3ac78}{%
           family={Lu},
           familyi={L\bibinitperiod},
           given={Yijuan},
           giveni={Y\bibinitperiod}}}%
        {{hash=6c2e0327abbc10ed65f68d90762db88e}{%
           family={Florencio},
           familyi={F\bibinitperiod},
           given={Dinei},
           giveni={D\bibinitperiod}}}%
        {{hash=6be2ddbf537bae561864776d40c36220}{%
           family={Zhang},
           familyi={Z\bibinitperiod},
           given={Cha},
           giveni={C\bibinitperiod}}}%
        {{hash=cb0803882fba28a6c7ecb519069a89de}{%
           family={Che},
           familyi={C\bibinitperiod},
           given={Wanxiang},
           giveni={W\bibinitperiod}}}%
        {{hash=c5f133678c8bdff0e050e19158f289ed}{%
           family={Zhang},
           familyi={Z\bibinitperiod},
           given={Min},
           giveni={M\bibinitperiod}}}%
        {{hash=e93cb68b77ead87355fd8fcb65dfb29a}{%
           family={Zhou},
           familyi={Z\bibinitperiod},
           given={Lidong},
           giveni={L\bibinitperiod}}}%
      }
      \strng{namehash}{99459ab68d902d3d1bf72d1efd9459eb}
      \strng{fullhash}{99459ab68d902d3d1bf72d1efd9459eb}
      \strng{bibnamehash}{99459ab68d902d3d1bf72d1efd9459eb}
      \strng{authorbibnamehash}{99459ab68d902d3d1bf72d1efd9459eb}
      \strng{authornamehash}{99459ab68d902d3d1bf72d1efd9459eb}
      \strng{authorfullhash}{99459ab68d902d3d1bf72d1efd9459eb}
      \field{sortinit}{3}
      \field{sortinithash}{ad6fe7482ffbd7b9f99c9e8b5dccd3d7}
      \field{labelnamesource}{author}
      \field{labeltitlesource}{title}
      \field{eprintclass}{cs.CL}
      \field{eprinttype}{arXiv}
      \field{title}{LayoutLMv2: Multi-modal Pre-training for Visually-Rich Document Understanding}
      \field{year}{2020}
      \verb{eprint}
      \verb 2012.14740
      \endverb
    \endentry
    \entry{efficnet}{article}{}
      \name{author}{8}{}{%
        {{hash=c816dc67540dd9226447990fc56f3a66}{%
           family={Ferrando},
           familyi={F\bibinitperiod},
           given={Javier},
           giveni={J\bibinitperiod}}}%
        {{hash=1c5dcab4fdf7cd71119ea472d868c0fe}{%
           family={Domínguez},
           familyi={D\bibinitperiod},
           given={Juan\bibnamedelima Luis},
           giveni={J\bibinitperiod\bibinitdelim L\bibinitperiod}}}%
        {{hash=adb7c9e4e76fa78166cef16f41929e1c}{%
           family={Torres},
           familyi={T\bibinitperiod},
           given={Jordi},
           giveni={J\bibinitperiod}}}%
        {{hash=84cec45758ae89d0fc6b87bc89bf0870}{%
           family={García},
           familyi={G\bibinitperiod},
           given={Raúl},
           giveni={R\bibinitperiod}}}%
        {{hash=e3f075d70a6fedc4593c04feb76e0b5f}{%
           family={García},
           familyi={G\bibinitperiod},
           given={David},
           giveni={D\bibinitperiod}}}%
        {{hash=8ac577d295d21a5ce77474aa01877b92}{%
           family={Garrido},
           familyi={G\bibinitperiod},
           given={Daniel},
           giveni={D\bibinitperiod}}}%
        {{hash=e57936a2115ae3c2f2d1dece7cbb5e06}{%
           family={Cortada},
           familyi={C\bibinitperiod},
           given={Jordi},
           giveni={J\bibinitperiod}}}%
        {{hash=7267b29627e0f33514ec7f314d002572}{%
           family={Valero},
           familyi={V\bibinitperiod},
           given={Mateo},
           giveni={M\bibinitperiod}}}%
      }
      \list{publisher}{1}{%
        {Springer International Publishing}%
      }
      \strng{namehash}{da7f46ae1ba222e547fda0f9733585e1}
      \strng{fullhash}{da7f46ae1ba222e547fda0f9733585e1}
      \strng{bibnamehash}{da7f46ae1ba222e547fda0f9733585e1}
      \strng{authorbibnamehash}{da7f46ae1ba222e547fda0f9733585e1}
      \strng{authornamehash}{da7f46ae1ba222e547fda0f9733585e1}
      \strng{authorfullhash}{da7f46ae1ba222e547fda0f9733585e1}
      \field{sortinit}{4}
      \field{sortinithash}{9381316451d1b9788675a07e972a12a7}
      \field{labelnamesource}{author}
      \field{labeltitlesource}{title}
      \field{isbn}{9783030504175}
      \field{issn}{1611-3349}
      \field{journaltitle}{Computational Science – ICCS 2020}
      \field{title}{Improving Accuracy and Speeding Up Document Image Classification Through Parallel Systems}
      \field{year}{2020}
      \field{pages}{387\bibrangedash 400}
      \range{pages}{14}
      \verb{doi}
      \verb 10.1007/978-3-030-50417-5_29
      \endverb
      \verb{urlraw}
      \verb http://dx.doi.org/10.1007/978-3-030-50417-5_29
      \endverb
      \verb{url}
      \verb http://dx.doi.org/10.1007/978-3-030-50417-5_29
      \endverb
    \endentry
    \entry{lightcnn}{misc}{}
      \name{author}{1}{}{%
        {{hash=3119e02f77de235ae8eff3879e4e1be8}{%
           family={Yadav},
           familyi={Y\bibinitperiod},
           given={Ritu},
           giveni={R\bibinitperiod}}}%
      }
      \strng{namehash}{3119e02f77de235ae8eff3879e4e1be8}
      \strng{fullhash}{3119e02f77de235ae8eff3879e4e1be8}
      \strng{bibnamehash}{3119e02f77de235ae8eff3879e4e1be8}
      \strng{authorbibnamehash}{3119e02f77de235ae8eff3879e4e1be8}
      \strng{authornamehash}{3119e02f77de235ae8eff3879e4e1be8}
      \strng{authorfullhash}{3119e02f77de235ae8eff3879e4e1be8}
      \field{sortinit}{6}
      \field{sortinithash}{b33bc299efb3c36abec520a4c896a66d}
      \field{labelnamesource}{author}
      \field{labeltitlesource}{title}
      \field{eprintclass}{cs.LG}
      \field{eprinttype}{arXiv}
      \field{title}{Light-Weighted CNN for Text Classification}
      \field{year}{2020}
      \verb{eprint}
      \verb 2004.07922
      \endverb
    \endentry
  \enddatalist
\endrefsection
\endinput

